{
  "name": "Nicola Newton",
  "position": "Associate Professor",
  "linkedIn": null,
  "researchgate": null,
  "website": "https://www.wlu.ca/academics/faculties/faculty-of-science/faculty-profiles/nicola-newton/index.html"
}